[
  {
    "_vocabulary": "collections_datatypes",
    "key": "collection",
    "value": "collection"
  },
  {
    "_vocabulary": "collections_datatypes",
    "key": "corpus",
    "value": "corpus"
  },
  {
    "_vocabulary": "collections_datatypes",
    "key": "text",
    "value": "text"
  },
  {
    "_vocabulary": "collections_datatypes",
    "key": "lexicalResource",
    "value": "lexicalResource"
  },
  {
    "_vocabulary": "collections_datatypes",
    "key": "grammar",
    "value": "grammar"
  },
  {
    "_vocabulary": "collections_datatypes",
    "key": "structuredDataset",
    "value": "structuredDataset"
  },
  {
    "_vocabulary": "collections_datatypes",
    "key": "annotation",
    "value": "annotation"
  },
  {
    "_vocabulary": "collections_datatypes",
    "key": "image",
    "value": "image"
  },
  {
    "_vocabulary": "collections_datatypes",
    "key": "audio",
    "value": "audio"
  },
  {
    "_vocabulary": "collections_datatypes",
    "key": "video",
    "value": "video"
  },
  {
    "_vocabulary": "collections_datatypes",
    "key": "session",
    "value": "session"
  },
  {
    "_vocabulary": "collections_datatypes",
    "key": "toolService",
    "value": "toolService"
  },
  {
    "_vocabulary": "collections_datatypes",
    "key": "physicalObject",
    "value": "physicalObject"
  }
]