[
  {
    "_vocabulary": "collections_annotationen_umfang",
    "key": "teilweise",
    "value": "teilweise"
  }, {
    "_vocabulary": "collections_annotationen_umfang",
    "key": "komplett",
    "value": "komplett"
  }
]