[
  {
    "_vocabulary": "datacenter_platform",
    "key": "invenio",
    "value": "Invenio"
  }, {
    "_vocabulary": "datacenter_platform",
    "key": "fedora_commons",
    "value": "Fedora-Commons"
  }, {
    "_vocabulary": "datacenter_platform",
    "key": "dspace",
    "value": "DSpace"
  }, {
    "_vocabulary": "datacenter_platform",
    "key": "dataverse",
    "value": "Dataverse"
  }, {
    "_vocabulary": "datacenter_platform",
    "key": "eigene",
    "value": "Eigene"
  },

  {
    "_vocabulary": "datacenter_operator",
    "key": "selbst",
    "value": "selbst"
  }, {
    "_vocabulary": "datacenter_operator",
    "key": "institution",
    "value": "institutionelles Rechenzentrum oder andere zentrale Einrichtung der Text+ beteiligten Institution"
  }, {
    "_vocabulary": "datacenter_operator",
    "key": "extern",
    "value": "Externes Rechenzentrum/externer Partner"
  },
  
  {
    "_vocabulary": "datacenter_type",
    "key": "disciplinary",
    "value": "disciplinary"
  }, {
    "_vocabulary": "datacenter_type",
    "key": "governmental",
    "value": "governmental"
  }, {
    "_vocabulary": "datacenter_type",
    "key": "institutional",
    "value": "institutional"
  }, {
    "_vocabulary": "datacenter_type",
    "key": "multidisciplinary",
    "value": "multidisciplinary"
  }, {
    "_vocabulary": "datacenter_type",
    "key": "project_related",
    "value": "project-related"
  }, 

  {
    "_vocabulary": "datacenter_certification",
    "key": "cts",
    "value": "Core Trust Seal"
  }, {
    "_vocabulary": "datacenter_certification",
    "key": "dsa",
    "value": "Data Seal of Approval"
  }, {
    "_vocabulary": "datacenter_certification",
    "key": "nestor",
    "value": "Nestor"
  }, {
    "_vocabulary": "datacenter_certification",
    "key": "clarin",
    "value": "CLARIN"
  }, 
  
  {
    "_vocabulary": "datacenter_metadata_scheme",
    "key": "dc",
    "value": "Dublin Core"
  }, {
    "_vocabulary": "datacenter_metadata_scheme",
    "key": "datacite",
    "value": "DataCite"
  }, {
    "_vocabulary": "datacenter_metadata_scheme",
    "key": "olac",
    "value": "OLAC"
  }, {
    "_vocabulary": "datacenter_metadata_scheme",
    "key": "marc21",
    "value": "MARC21"
  }, {
    "_vocabulary": "datacenter_metadata_scheme",
    "key": "cmdi",
    "value": "CMDI"
  }, {
    "_vocabulary": "datacenter_metadata_scheme",
    "key": "lido",
    "value": "LIDO"
  }, {
    "_vocabulary": "datacenter_metadata_scheme",
    "key": "cidoc_crm",
    "value": "CIDOC CRM"
  }, 
  
  {
    "_vocabulary": "datacenter_pid",
    "key": "doi",
    "value": "DOI"
  }, {
    "_vocabulary": "datacenter_pid",
    "key": "handle_epic",
    "value": "Handle (EPIC)"
  }, {
    "_vocabulary": "datacenter_pid",
    "key": "handle_other",
    "value": "Handle (Sonstige)"
  }, {
    "_vocabulary": "datacenter_pid",
    "key": "urn",
    "value": "URN"
  }, 
  
  {
    "_vocabulary": "datacenter_usage_monitoring",
    "key": "matomo",
    "value": "Matomo"
  }, {
    "_vocabulary": "datacenter_usage_monitoring",
    "key": "google",
    "value": "Google-Analytics"
  }, {
    "_vocabulary": "datacenter_usage_monitoring",
    "key": "piwik",
    "value": "Piwik"
  }, 
  
  {
    "_vocabulary": "datacenter_data_type_coar",
    "key": "aggregated_data",
    "value": "aggregated data"
  }, {
    "_vocabulary": "datacenter_data_type_coar",
    "key": "clinical_trial_data",
    "value": "clinical trial data"
  }, {
    "_vocabulary": "datacenter_data_type_coar",
    "key": "compiled_data",
    "value": "compiled data"
  }, {
    "_vocabulary": "datacenter_data_type_coar",
    "key": "encoded_data",
    "value": "encoded data"
  }, {
    "_vocabulary": "datacenter_data_type_coar",
    "key": "experimental_data",
    "value": "experimental data"
  }, {
    "_vocabulary": "datacenter_data_type_coar",
    "key": "genomic_data",
    "value": "genomic data"
  }, {
    "_vocabulary": "datacenter_data_type_coar",
    "key": "geospatial_data",
    "value": "geospatial data"
  }, {
    "_vocabulary": "datacenter_data_type_coar",
    "key": "laboratory_notebook",
    "value": "laboratory notebook"
  }, {
    "_vocabulary": "datacenter_data_type_coar",
    "key": "measurement_and_test_data",
    "value": "measurement and test data"
  }, {
    "_vocabulary": "datacenter_data_type_coar",
    "key": "observational_data",
    "value": "observational data"
  }, {
    "_vocabulary": "datacenter_data_type_coar",
    "key": "recorded_data",
    "value": "recorded data"
  }, {
    "_vocabulary": "datacenter_data_type_coar",
    "key": "simulation_data",
    "value": "simulation data"
  }, {
    "_vocabulary": "datacenter_data_type_coar",
    "key": "survey_data",
    "value": "survey data"
  }, 
  
  {
    "_vocabulary": "datacenter_data_type_accepted",
    "key": "speech_korpora",
    "value": "Speech Korpora"
  }, {
    "_vocabulary": "datacenter_data_type_accepted",
    "key": "gebaerdensprachekorpora",
    "value": "Gebärdensprachekorpora"
  }, {
    "_vocabulary": "datacenter_data_type_accepted",
    "key": "geschriebene_sprache",
    "value": "Geschriebene Sprache"
  }, {
    "_vocabulary": "datacenter_data_type_accepted",
    "key": "korpora_besondere_zwecke",
    "value": "Korpora für besondere Zwecke"
  }, {
    "_vocabulary": "datacenter_data_type_accepted",
    "key": "sprachdokumentation_bedrohte_sprachen_minderheitensprachen",
    "value": "Sprachdokumentation von bedrohten Sprachen und Minderheitensprachen"
  }, {
    "_vocabulary": "datacenter_data_type_accepted",
    "key": "experimentaldaten",
    "value": "Experimentaldaten"
  }, {
    "_vocabulary": "datacenter_data_type_accepted",
    "key": "abgeleitete_textformate",
    "value": "Abgeleitete Textformate"
  }, {
    "_vocabulary": "datacenter_data_type_accepted",
    "key": "woerterbuecher",
    "value": "Wörterbücher"
  }, {
    "_vocabulary": "datacenter_data_type_accepted",
    "key": "wortnetze",
    "value": "Wortnetze"
  }, {
    "_vocabulary": "datacenter_data_type_accepted",
    "key": "dokumentarische_diplomatische_editionen",
    "value": "Dokumentarische oder diplomatische Editionen"
  }, {
    "_vocabulary": "datacenter_data_type_accepted",
    "key": "genetische_editionen",
    "value": "Genetische Editionen"
  }, {
    "_vocabulary": "datacenter_data_type_accepted",
    "key": "historisch_kritische_editionen",
    "value": "Historisch-kritische Editionen"
  }, {
    "_vocabulary": "datacenter_data_type_accepted",
    "key": "collectionen",
    "value": "Collectionen"
  }, 
  
  {
    "_vocabulary": "datacenter_api",
    "key": "ftp",
    "value": "ftp"
  }, {
    "_vocabulary": "datacenter_api",
    "key": "rest",
    "value": "rest"
  }, {
    "_vocabulary": "datacenter_api",
    "key": "soap",
    "value": "soap"
  }, {
    "_vocabulary": "datacenter_api",
    "key": "sparql",
    "value": "sparql"
  }, 
  
  {
    "_vocabulary": "datacenter_data_type_preferred",
    "key": "ja",
    "value": "Ja"
  }, {
    "_vocabulary": "datacenter_data_type_preferred",
    "key": "nein",
    "value": "Nein"
  }, {
    "_vocabulary": "datacenter_data_type_preferred",
    "key": "unbekannt",
    "value": "Unbekannt"
  }, 
  
  {
    "_vocabulary": "datacenter_discipline",
    "key": "klassische_philologie",
    "value": "Klassische Philologie"
  }, {
    "_vocabulary": "datacenter_discipline",
    "key": "allgemeine_vergleichende_sprachwissenschaft_typologie_aussereuropaeische_sprachen",
    "value": "Allgemeine und Vergleichende Sprachwissenschaft, Typologie, Außereuropäische Sprachen"
  }, {
    "_vocabulary": "datacenter_discipline",
    "key": "einzelsprachwissenschaften",
    "value": "Einzelsprachwissenschaften"
  }, {
    "_vocabulary": "datacenter_discipline",
    "key": "ling_anglistik_amerikanistik",
    "value": "Ling: Anglistik/Amerikanistik"
  }, {
    "_vocabulary": "datacenter_discipline",
    "key": "ling_romanistik",
    "value": "Ling: Romanistik"
  }, {
    "_vocabulary": "datacenter_discipline",
    "key": "ling_slavistik",
    "value": "Ling: Slavistik"
  }, {
    "_vocabulary": "datacenter_discipline",
    "key": "ling_andere",
    "value": "Ling: Andere"
  }, {
    "_vocabulary": "datacenter_discipline",
    "key": "historische_linguistik",
    "value": "Historische Linguistik"
  }, {
    "_vocabulary": "datacenter_discipline",
    "key": "angewandte_sprachwissenschaften_experimentelle_linguistik_computerlinguistik",
    "value": "Angewandte Sprachwissenschaften, Experimentelle Linguistik, Computerlinguistik"
  }, {
    "_vocabulary": "datacenter_discipline",
    "key": "aeltere_deutsche_literatur",
    "value": "Ältere deutsche Literatur"
  }, {
    "_vocabulary": "datacenter_discipline",
    "key": "neuere_deutsche_literatur",
    "value": "Neuere deutsche Literatur"
  }, {
    "_vocabulary": "datacenter_discipline",
    "key": "europaeische_amerikanische_literaturen",
    "value": "Europäische und Amerikanische Literaturen"
  }, {
    "_vocabulary": "datacenter_discipline",
    "key": "lit_anglistik_amerikanistik",
    "value": "Lit: Anglistik/Amerikanistik"
  }, {
    "_vocabulary": "datacenter_discipline",
    "key": "lit_romanistik",
    "value": "Lit: Romanistik"
  }, {
    "_vocabulary": "datacenter_discipline",
    "key": "lit_slavistik",
    "value": "Lit: Slavistik"
  }, {
    "_vocabulary": "datacenter_discipline",
    "key": "lit_andere",
    "value": "Lit: Andere"
  }, {
    "_vocabulary": "datacenter_discipline",
    "key": "allgemeine_vergleichende_literaturwissenschaft_kulturwissenschaft",
    "value": "Allgemeine und vergleichende Literaturwissenschaft; Kulturwissenschaft"
  }, {
    "_vocabulary": "datacenter_discipline",
    "key": "ethnologie_europaeische_ethnologie",
    "value": "Ethnologie und Europäische Ethnologie"
  }, {
    "_vocabulary": "datacenter_discipline",
    "key": "asienbezogene_wissenschaften",
    "value": "Asienbezogene Wissenschaften"
  }, {
    "_vocabulary": "datacenter_discipline",
    "key": "afrika_amerika_ozeanienbezogene_wissenschaften",
    "value": "Afrika-, Amerika- und Ozeanienbezogene Wissenschaften"
  }, {
    "_vocabulary": "datacenter_discipline",
    "key": "islamwissenschaften_arabistik_semitistik",
    "value": "Islamwissenschaften, Arabistik, Semitistik"
  }, {
    "_vocabulary": "datacenter_discipline",
    "key": "religionswissenschaft_judaistik",
    "value": "Religionswissenschaft und Judaistik"
  }, {
    "_vocabulary": "datacenter_discipline",
    "key": "geschichte_philosophie",
    "value": "Geschichte der Philosophie"
  }, {
    "_vocabulary": "datacenter_discipline",
    "key": "praktische_philosophie",
    "value": "Praktische Philosophie"
  }, {
    "_vocabulary": "datacenter_discipline",
    "key": "theoretische_philosophie",
    "value": "Theoretische Philosophie"
  }, {
    "_vocabulary": "datacenter_discipline",
    "key": "informatik",
    "value": "Informatik"
  }, {
    "_vocabulary": "datacenter_discipline",
    "key": "alle",
    "value": "Alle"
  }
]