[
  {
      "_vocabulary": "dfg_fachsystematik",
      "key": "101-01",
      "parentEntity": "101",
      "primaryValue": "Ur- und Frühgeschichte (weltweit)",
      "value_de": "Ur- und Frühgeschichte (weltweit)",
      "value_en": "Prehistory and World Archaeology"
  },
  {
      "_vocabulary": "dfg_fachsystematik",
      "key": "101-02",
      "parentEntity": "101",
      "primaryValue": "Klassische Philologie",
      "value_de": "Klassische Philologie",
      "value_en": "Classical Philology"
  },
  {
      "_vocabulary": "dfg_fachsystematik",
      "key": "101-03",
      "parentEntity": "101",
      "primaryValue": "Alte Geschichte",
      "value_de": "Alte Geschichte",
      "value_en": "Ancient History"
  },
  {
      "_vocabulary": "dfg_fachsystematik",
      "key": "101-04",
      "parentEntity": "101",
      "primaryValue": "Klassische Archäologie",
      "value_de": "Klassische Archäologie",
      "value_en": "Classical Archaeology"
  },
  {
      "_vocabulary": "dfg_fachsystematik",
      "key": "101-05",
      "parentEntity": "101",
      "primaryValue": "Ägyptische und Vorderasiatische Altertumswissenschaften",
      "value_de": "Ägyptische und Vorderasiatische Altertumswissenschaften",
      "value_en": "Egyptology and Ancient Near Eastern Studies"
  },
  {
      "_vocabulary": "dfg_fachsystematik",
      "key": "102-01",
      "parentEntity": "102",
      "primaryValue": "Mittelalterliche Geschichte",
      "value_de": "Mittelalterliche Geschichte",
      "value_en": "Medieval History"
  },
  {
      "_vocabulary": "dfg_fachsystematik",
      "key": "102-02",
      "parentEntity": "102",
      "primaryValue": "Frühneuzeitliche Geschichte",
      "value_de": "Frühneuzeitliche Geschichte",
      "value_en": "Early Modern History"
  },
  {
      "_vocabulary": "dfg_fachsystematik",
      "key": "102-03",
      "parentEntity": "102",
      "primaryValue": "Neuere und Neueste Geschichte (einschl. Europäische Geschichte der Neuzeit und Außereuropäische Geschichte)",
      "value_de": "Neuere und Neueste Geschichte (einschl. Europäische Geschichte der Neuzeit und Außereuropäische Geschichte)",
      "value_en": "Modern and Current History"
  },
  {
      "_vocabulary": "dfg_fachsystematik",
      "key": "102-04",
      "parentEntity": "102",
      "primaryValue": "Wissenschaftsgeschichte",
      "value_de": "Wissenschaftsgeschichte",
      "value_en": "History of Science"
  },
  {
      "_vocabulary": "dfg_fachsystematik",
      "key": "103-01",
      "parentEntity": "103",
      "primaryValue": "Kunstgeschichte",
      "value_de": "Kunstgeschichte",
      "value_en": "Art History"
  },
  {
      "_vocabulary": "dfg_fachsystematik",
      "key": "103-02",
      "parentEntity": "103",
      "primaryValue": "Musikwissenschaften",
      "value_de": "Musikwissenschaften",
      "value_en": "Musicology"
  },
  {
      "_vocabulary": "dfg_fachsystematik",
      "key": "103-03",
      "parentEntity": "103",
      "primaryValue": "Theater- und Medienwissenschaften",
      "value_de": "Theater- und Medienwissenschaften",
      "value_en": "Theatre and Media Studies"
  },
  {
      "_vocabulary": "dfg_fachsystematik",
      "key": "104-01",
      "parentEntity": "104",
      "primaryValue": "Allgemeine und Vergleichende Sprachwissenschaft, Typologie, Außereuropäische Sprachen",
      "value_de": "Allgemeine und Vergleichende Sprachwissenschaft, Typologie, Außereuropäische Sprachen",
      "value_en": "General and Comparative Linguistics, Typology, Non-European Languages"
  },
  {
      "_vocabulary": "dfg_fachsystematik",
      "key": "104-02",
      "parentEntity": "104",
      "primaryValue": "Einzelsprachwissenschaften",
      "value_de": "Einzelsprachwissenschaften",
      "value_en": "Individual Linguistics"
  },
  {
      "_vocabulary": "dfg_fachsystematik",
      "key": "104-03",
      "parentEntity": "104",
      "primaryValue": "Historische Linguistik",
      "value_de": "Historische Linguistik",
      "value_en": "Historical Linguistics"
  },
  {
      "_vocabulary": "dfg_fachsystematik",
      "key": "104-04",
      "parentEntity": "104",
      "primaryValue": "Angewandte Sprachwissenschaften, Experimentelle Linguistik, Computerlinguistik",
      "value_de": "Angewandte Sprachwissenschaften, Experimentelle Linguistik, Computerlinguistik",
      "value_en": "Applied Linguistics, Experimental Linguistics, Computational Linguistics"
  },
  {
      "_vocabulary": "dfg_fachsystematik",
      "key": "105-01",
      "parentEntity": "105",
      "primaryValue": "Ältere deutsche Literatur",
      "value_de": "Ältere deutsche Literatur",
      "value_en": "Medieval German Literature"
  },
  {
      "_vocabulary": "dfg_fachsystematik",
      "key": "105-02",
      "parentEntity": "105",
      "primaryValue": "Neuere deutsche Literatur",
      "value_de": "Neuere deutsche Literatur",
      "value_en": "Modern German Literature"
  },
  {
      "_vocabulary": "dfg_fachsystematik",
      "key": "105-03",
      "parentEntity": "105",
      "primaryValue": "Europäische und Amerikanische Literaturen",
      "value_de": "Europäische und Amerikanische Literaturen",
      "value_en": "European and American Literature"
  },
  {
      "_vocabulary": "dfg_fachsystematik",
      "key": "105-04",
      "parentEntity": "105",
      "primaryValue": "Allgemeine und vergleichende Literaturwissenschaft",
      "value_de": "Allgemeine und vergleichende Literaturwissenschaft",
      "value_en": "General and Comparative Literature and Cultural Studies"
  },
  {
      "_vocabulary": "dfg_fachsystematik",
      "key": "106-01",
      "parentEntity": "106",
      "primaryValue": "Ethnologie und Europäische Ethnologie",
      "value_de": "Ethnologie und Europäische Ethnologie",
      "value_en": "Social and Cultural Anthropology and Ethnology"
  },
  {
      "_vocabulary": "dfg_fachsystematik",
      "key": "106-02",
      "parentEntity": "106",
      "primaryValue": "Asienbezogene Wissenschaften",
      "value_de": "Asienbezogene Wissenschaften",
      "value_en": "Asian Studies"
  },
  {
      "_vocabulary": "dfg_fachsystematik",
      "key": "106-03",
      "parentEntity": "106",
      "primaryValue": "Afrika-, Amerika- und Ozeanienbezogene Wissenschaften",
      "value_de": "Afrika-, Amerika- und Ozeanienbezogene Wissenschaften",
      "value_en": "African, American and Oceania Studies"
  },
  {
      "_vocabulary": "dfg_fachsystematik",
      "key": "106-04",
      "parentEntity": "106",
      "primaryValue": "Islamwissenschaften, Arabistik, Semitistik",
      "value_de": "Islamwissenschaften, Arabistik, Semitistik",
      "value_en": "Islamic Studies, Arabian Studies, Semitic Studies"
  },
  {
      "_vocabulary": "dfg_fachsystematik",
      "key": "106-05",
      "parentEntity": "106",
      "primaryValue": "Religionswissenschaft und Judaistik",
      "value_de": "Religionswissenschaft und Judaistik",
      "value_en": "Religious Studies and Jewish Studies"
  },
  {
      "_vocabulary": "dfg_fachsystematik",
      "key": "107-01",
      "parentEntity": "107",
      "primaryValue": "Evangelische Theologie",
      "value_de": "Evangelische Theologie",
      "value_en": "Protestant Theology"
  },
  {
      "_vocabulary": "dfg_fachsystematik",
      "key": "107-02",
      "parentEntity": "107",
      "primaryValue": "Katholische Theologie",
      "value_de": "Katholische Theologie",
      "value_en": "Roman Catholic Theology"
  },
  {
      "_vocabulary": "dfg_fachsystematik",
      "key": "108-01",
      "parentEntity": "108",
      "primaryValue": "Geschichte der Philosophie",
      "value_de": "Geschichte der Philosophie",
      "value_en": "History of Philosophy"
  },
  {
      "_vocabulary": "dfg_fachsystematik",
      "key": "108-02",
      "parentEntity": "108",
      "primaryValue": "Theoretische Philosophie",
      "value_de": "Theoretische Philosophie",
      "value_en": "Theoretical Philosophy"
  },
  {
      "_vocabulary": "dfg_fachsystematik",
      "key": "108-03",
      "parentEntity": "108",
      "primaryValue": "Praktische Philosophie",
      "value_de": "Praktische Philosophie",
      "value_en": "Practical Philosophy"
  },
  {
      "_vocabulary": "dfg_fachsystematik",
      "key": "109-01",
      "parentEntity": "109",
      "primaryValue": "Allgemeine und Historische Erziehungswissenschaft",
      "value_de": "Allgemeine und Historische Erziehungswissenschaft",
      "value_en": "General Education and History of Education"
  },
  {
      "_vocabulary": "dfg_fachsystematik",
      "key": "109-02",
      "parentEntity": "109",
      "primaryValue": "Allgemeines und fachbezogenes Lehren und Lernen",
      "value_de": "Allgemeines und fachbezogenes Lehren und Lernen",
      "value_en": "General and Domain-Specific Teaching and Learning"
  },
  {
      "_vocabulary": "dfg_fachsystematik",
      "key": "109-03",
      "parentEntity": "109",
      "primaryValue": "Bildungssysteme und Bildungsinstitutionen",
      "value_de": "Bildungssysteme und Bildungsinstitutionen",
      "value_en": "Education Systems and Educational Institutions"
  },
  {
      "_vocabulary": "dfg_fachsystematik",
      "key": "109-04",
      "parentEntity": "109",
      "primaryValue": "Erziehungswissenschaftliche Sozialisations- und Professionalitätsforschung",
      "value_de": "Erziehungswissenschaftliche Sozialisations- und Professionalitätsforschung",
      "value_en": "Educational Research on Socialisation, Welfare and Professionalism Research"
  },
  {
      "_vocabulary": "dfg_fachsystematik",
      "key": "110-01",
      "parentEntity": "110",
      "primaryValue": "Allgemeine, Kognitive und Mathematische Psychologie",
      "value_de": "Allgemeine, Kognitive und Mathematische Psychologie",
      "value_en": "General, Cognitive and Mathematical Psychology"
  },
  {
      "_vocabulary": "dfg_fachsystematik",
      "key": "110-02",
      "parentEntity": "110",
      "primaryValue": "Biologische Psychologie und Kognitive Neurowissenschaften",
      "value_de": "Biologische Psychologie und Kognitive Neurowissenschaften",
      "value_en": "Biological Psychology and Cognitive Neuroscience"
  },
  {
      "_vocabulary": "dfg_fachsystematik",
      "key": "110-03",
      "parentEntity": "110",
      "primaryValue": "Entwicklungspsychologie und Pädagogische Psychologie",
      "value_de": "Entwicklungspsychologie und Pädagogische Psychologie",
      "value_en": "Developmental and Educational Psychology"
  },
  {
      "_vocabulary": "dfg_fachsystematik",
      "key": "110-04",
      "parentEntity": "110",
      "primaryValue": "Sozialpsychologie und Arbeits- und Organisationspsychologie",
      "value_de": "Sozialpsychologie und Arbeits- und Organisationspsychologie",
      "value_en": "Social Psychology, Industrial and Organisational Psychology"
  },
  {
      "_vocabulary": "dfg_fachsystematik",
      "key": "110-05",
      "parentEntity": "110",
      "primaryValue": "Differentielle, Klinische und Medizinische Psychologie, Methoden",
      "value_de": "Differentielle, Klinische und Medizinische Psychologie, Methoden",
      "value_en": "Differential, Clinical and Medical Psychology, Methodology"
  },
  {
      "_vocabulary": "dfg_fachsystematik",
      "key": "111-01",
      "parentEntity": "111",
      "primaryValue": "Soziologische Theorie",
      "value_de": "Soziologische Theorie",
      "value_en": "Sociological Theory"
  },
  {
      "_vocabulary": "dfg_fachsystematik",
      "key": "111-02",
      "parentEntity": "111",
      "primaryValue": "Empirische Sozialforschung",
      "value_de": "Empirische Sozialforschung",
      "value_en": "Empirical Social Research"
  },
  {
      "_vocabulary": "dfg_fachsystematik",
      "key": "111-03",
      "parentEntity": "111",
      "primaryValue": "Publizistik und Kommunikationswissenschaft",
      "value_de": "Publizistik und Kommunikationswissenschaft",
      "value_en": "Communication Sciences"
  },
  {
      "_vocabulary": "dfg_fachsystematik",
      "key": "111-04",
      "parentEntity": "111",
      "primaryValue": "Politikwissenschaft",
      "value_de": "Politikwissenschaft",
      "value_en": "Political Science"
  },
  {
      "_vocabulary": "dfg_fachsystematik",
      "key": "112-01",
      "parentEntity": "112",
      "primaryValue": "Wirtschaftstheorie",
      "value_de": "Wirtschaftstheorie",
      "value_en": "Economic Theory"
  },
  {
      "_vocabulary": "dfg_fachsystematik",
      "key": "112-02",
      "parentEntity": "112",
      "primaryValue": "Wirtschaftspolitik, Angewandte Volkswirtschaftslehre",
      "value_de": "Wirtschaftspolitik, Angewandte Volkswirtschaftslehre",
      "value_en": "Economic Policy, Applied Economics"
  },
  {
      "_vocabulary": "dfg_fachsystematik",
      "key": "112-03",
      "parentEntity": "112",
      "primaryValue": "Betriebswirtschaftslehre",
      "value_de": "Betriebswirtschaftslehre",
      "value_en": "Business Administration"
  },
  {
      "_vocabulary": "dfg_fachsystematik",
      "key": "112-04",
      "parentEntity": "112",
      "primaryValue": "Statistik und Ökonometrie",
      "value_de": "Statistik und Ökonometrie",
      "value_en": "Statistics and Econometrics"
  },
  {
      "_vocabulary": "dfg_fachsystematik",
      "key": "112-05",
      "parentEntity": "112",
      "primaryValue": "Wirtschafts- und Sozialgeschichte",
      "value_de": "Wirtschafts- und Sozialgeschichte",
      "value_en": "Economic and Social History"
  },
  {
      "_vocabulary": "dfg_fachsystematik",
      "key": "113-01",
      "parentEntity": "113",
      "primaryValue": "Grundlagen des Rechts und der Rechtswissenschaft",
      "value_de": "Grundlagen des Rechts und der Rechtswissenschaft",
      "value_en": "Principles of Law and Jurisprudence"
  },
  {
      "_vocabulary": "dfg_fachsystematik",
      "key": "113-02",
      "parentEntity": "113",
      "primaryValue": "Privatrecht",
      "value_de": "Privatrecht",
      "value_en": "Private Law"
  },
  {
      "_vocabulary": "dfg_fachsystematik",
      "key": "113-03",
      "parentEntity": "113",
      "primaryValue": "Öffentliches Recht",
      "value_de": "Öffentliches Recht",
      "value_en": "Public Law"
  },
  {
      "_vocabulary": "dfg_fachsystematik",
      "key": "113-04",
      "parentEntity": "113",
      "primaryValue": "Strafrecht",
      "value_de": "Strafrecht",
      "value_en": "Criminal Law"
  },
  {
      "_vocabulary": "dfg_fachsystematik",
      "key": "113-05",
      "parentEntity": "113",
      "primaryValue": "Kriminologie",
      "value_de": "Kriminologie",
      "value_en": "Criminology"
  },
  {
      "_vocabulary": "dfg_fachsystematik",
      "key": "201-01",
      "parentEntity": "201",
      "primaryValue": "Biochemie",
      "value_de": "Biochemie",
      "value_en": "Biochemistry"
  },
  {
      "_vocabulary": "dfg_fachsystematik",
      "key": "201-02",
      "parentEntity": "201",
      "primaryValue": "Biophysik",
      "value_de": "Biophysik",
      "value_en": "Biophysics"
  },
  {
      "_vocabulary": "dfg_fachsystematik",
      "key": "201-03",
      "parentEntity": "201",
      "primaryValue": "Zellbiologie",
      "value_de": "Zellbiologie",
      "value_en": "Cell Biology"
  },
  {
      "_vocabulary": "dfg_fachsystematik",
      "key": "201-04",
      "parentEntity": "201",
      "primaryValue": "Strukturbiologie",
      "value_de": "Strukturbiologie",
      "value_en": "Structural Biology"
  },
  {
      "_vocabulary": "dfg_fachsystematik",
      "key": "201-05",
      "parentEntity": "201",
      "primaryValue": "Allgemeine Genetik und funktionelle Genomforschung",
      "value_de": "Allgemeine Genetik und funktionelle Genomforschung",
      "value_en": "General Genetics and Functional Genome Biology"
  },
  {
      "_vocabulary": "dfg_fachsystematik",
      "key": "201-06",
      "parentEntity": "201",
      "primaryValue": "Entwicklungsbiologie",
      "value_de": "Entwicklungsbiologie",
      "value_en": "Developmental Biology"
  },
  {
      "_vocabulary": "dfg_fachsystematik",
      "key": "201-07",
      "parentEntity": "201",
      "primaryValue": "Bioinformatik und Theoretische Biologie",
      "value_de": "Bioinformatik und Theoretische Biologie",
      "value_en": "Bioinformatics and Theoretical Biology"
  },
  {
      "_vocabulary": "dfg_fachsystematik",
      "key": "202-01",
      "parentEntity": "202",
      "primaryValue": "Evolution und Systematik der Pflanzen und Pilze",
      "value_de": "Evolution und Systematik der Pflanzen und Pilze",
      "value_en": "Evolution and Systematics of Plants and Fungi"
  },
  {
      "_vocabulary": "dfg_fachsystematik",
      "key": "202-02",
      "parentEntity": "202",
      "primaryValue": "Ökologie und Biodiversität der Pflanzen und Ökosysteme",
      "value_de": "Ökologie und Biodiversität der Pflanzen und Ökosysteme",
      "value_en": "Ecology and Biodiversity of Plants and Ecosystems"
  },
  {
      "_vocabulary": "dfg_fachsystematik",
      "key": "202-03",
      "parentEntity": "202",
      "primaryValue": "Organismische Interaktionen, chemische Ökologie und Mikrobiome pflanzlicher Systeme",
      "value_de": "Organismische Interaktionen, chemische Ökologie und Mikrobiome pflanzlicher Systeme",
      "value_en": "Organismic Interactions, Chemical Ecology and Microbiomes of Plant Systems"
  },
  {
      "_vocabulary": "dfg_fachsystematik",
      "key": "202-04",
      "parentEntity": "202",
      "primaryValue": "Pflanzenphysiologie",
      "value_de": "Pflanzenphysiologie",
      "value_en": "Plant Physiology"
  },
  {
      "_vocabulary": "dfg_fachsystematik",
      "key": "202-05",
      "parentEntity": "202",
      "primaryValue": "Biochemie und Biophysik der Pflanzen",
      "value_de": "Biochemie und Biophysik der Pflanzen",
      "value_en": "Plant Biochemistry and Biophysics"
  },
  {
      "_vocabulary": "dfg_fachsystematik",
      "key": "202-06",
      "parentEntity": "202",
      "primaryValue": "Zell- und Entwicklungsbiologie der Pflanzen",
      "value_de": "Zell- und Entwicklungsbiologie der Pflanzen",
      "value_en": "Plant Cell and Developmental Biology"
  },
  {
      "_vocabulary": "dfg_fachsystematik",
      "key": "202-07",
      "parentEntity": "202",
      "primaryValue": "Genetik der Pflanzen",
      "value_de": "Genetik der Pflanzen",
      "value_en": "Plant Genetics"
  },
  {
      "_vocabulary": "dfg_fachsystematik",
      "key": "203-01",
      "parentEntity": "203",
      "primaryValue": "Systematik und Morphologie der Tiere",
      "value_de": "Systematik und Morphologie der Tiere",
      "value_en": "Systematics and Morphology (Zoology)"
  },
  {
      "_vocabulary": "dfg_fachsystematik",
      "key": "203-02",
      "parentEntity": "203",
      "primaryValue": "Evolution, Anthropologie",
      "value_de": "Evolution, Anthropologie",
      "value_en": "Evolution, Anthropology"
  },
  {
      "_vocabulary": "dfg_fachsystematik",
      "key": "203-03",
      "parentEntity": "203",
      "primaryValue": "Ökologie und Biodiversität der Tiere und Ökosysteme, Organismische Interaktionen",
      "value_de": "Ökologie und Biodiversität der Tiere und Ökosysteme, Organismische Interaktionen",
      "value_en": "Ecology and Biodiversity of Animals and Ecosystems, Organismic Interactions"
  },
  {
      "_vocabulary": "dfg_fachsystematik",
      "key": "203-04",
      "parentEntity": "203",
      "primaryValue": "Biologie des Verhaltens und der Sinne",
      "value_de": "Biologie des Verhaltens und der Sinne",
      "value_en": "Sensory and Behavioural Biology"
  },
  {
      "_vocabulary": "dfg_fachsystematik",
      "key": "203-05",
      "parentEntity": "203",
      "primaryValue": "Biochemie und Physiologie der Tiere",
      "value_de": "Biochemie und Physiologie der Tiere",
      "value_en": "Animal Physiology and Biochemistry"
  },
  {
      "_vocabulary": "dfg_fachsystematik",
      "key": "203-06",
      "parentEntity": "203",
      "primaryValue": "Evolutionäre Zell- und Entwicklungsbiologie der Tiere",
      "value_de": "Evolutionäre Zell- und Entwicklungsbiologie der Tiere",
      "value_en": "Evolutionary Cell and Developmental Biology (Zoology)"
  },
  {
      "_vocabulary": "dfg_fachsystematik",
      "key": "204-01",
      "parentEntity": "204",
      "primaryValue": "Stoffwechselphysiologie, Biochemie und Genetik der Mikroorganismen",
      "value_de": "Stoffwechselphysiologie, Biochemie und Genetik der Mikroorganismen",
      "value_en": "Metabolism, Biochemistry and Genetics of Microorganisms"
  },
  {
      "_vocabulary": "dfg_fachsystematik",
      "key": "204-02",
      "parentEntity": "204",
      "primaryValue": "Mikrobielle Ökologie und Angewandte Mikrobiologie",
      "value_de": "Mikrobielle Ökologie und Angewandte Mikrobiologie",
      "value_en": "Microbial Ecology and Applied Microbiology"
  },
  {
      "_vocabulary": "dfg_fachsystematik",
      "key": "204-03",
      "parentEntity": "204",
      "primaryValue": "Medizinische Mikrobiologie und Mykologie,Hygiene, Molekulare Infektionsbiologie",
      "value_de": "Medizinische Mikrobiologie und Mykologie,Hygiene, Molekulare Infektionsbiologie",
      "value_en": "Medical Microbiology and Mycology, Hygiene, Molecular Infection Biology"
  },
  {
      "_vocabulary": "dfg_fachsystematik",
      "key": "204-04",
      "parentEntity": "204",
      "primaryValue": "Virologie",
      "value_de": "Virologie",
      "value_en": "Virology"
  },
  {
      "_vocabulary": "dfg_fachsystematik",
      "key": "204-05",
      "parentEntity": "204",
      "primaryValue": "Immunologie",
      "value_de": "Immunologie",
      "value_en": "Immunology"
  },
  {
      "_vocabulary": "dfg_fachsystematik",
      "key": "204-06",
      "parentEntity": "204",
      "primaryValue": "Parasitologie und Biologie der Erreger tropischer Infektionskrankheiten",
      "value_de": "Parasitologie und Biologie der Erreger tropischer Infektionskrankheiten",
      "value_en": "Parasitology and Biology of Tropical Infectious Disease Pathogens"
  },
  {
      "_vocabulary": "dfg_fachsystematik",
      "key": "205-01",
      "parentEntity": "205",
      "primaryValue": "Epidemiologie und Medizinische Biometrie/Statistik",
      "value_de": "Epidemiologie und Medizinische Biometrie/Statistik",
      "value_en": "Epidemiology and Medical Biometry/Statistics"
  },
  {
      "_vocabulary": "dfg_fachsystematik",
      "key": "205-02",
      "parentEntity": "205",
      "primaryValue": "Public Health, medizinische Versorgungsforschung, Sozialmedizin",
      "value_de": "Public Health, medizinische Versorgungsforschung, Sozialmedizin",
      "value_en": "Public Health, Health Services Research, Social Medicine"
  },
  {
      "_vocabulary": "dfg_fachsystematik",
      "key": "205-03",
      "parentEntity": "205",
      "primaryValue": "Humangenetik",
      "value_de": "Humangenetik",
      "value_en": "Human Genetics"
  },
  {
      "_vocabulary": "dfg_fachsystematik",
      "key": "205-04",
      "parentEntity": "205",
      "primaryValue": "Physiologie",
      "value_de": "Physiologie",
      "value_en": "Physiology"
  },
  {
      "_vocabulary": "dfg_fachsystematik",
      "key": "205-05",
      "parentEntity": "205",
      "primaryValue": "Ernährungswissenschaften",
      "value_de": "Ernährungswissenschaften",
      "value_en": "Nutritional Sciences"
  },
  {
      "_vocabulary": "dfg_fachsystematik",
      "key": "205-06",
      "parentEntity": "205",
      "primaryValue": "Pathologie",
      "value_de": "Pathologie",
      "value_en": "Pathology"
  },
  {
      "_vocabulary": "dfg_fachsystematik",
      "key": "205-07",
      "parentEntity": "205",
      "primaryValue": "Medizininformatik und medizinische Bioinformatik",
      "value_de": "Medizininformatik und medizinische Bioinformatik",
      "value_en": "Medical Informatics and Medical Bioinformatics"
  },
  {
      "_vocabulary": "dfg_fachsystematik",
      "key": "205-08",
      "parentEntity": "205",
      "primaryValue": "Pharmazie",
      "value_de": "Pharmazie",
      "value_en": "Pharmacy"
  },
  {
      "_vocabulary": "dfg_fachsystematik",
      "key": "205-09",
      "parentEntity": "205",
      "primaryValue": "Pharmakologie",
      "value_de": "Pharmakologie",
      "value_en": "Pharmacology"
  },
  {
      "_vocabulary": "dfg_fachsystematik",
      "key": "205-10",
      "parentEntity": "205",
      "primaryValue": "Toxikologie, Arbeitsmedizin, Klinische Chemie",
      "value_de": "Toxikologie, Arbeitsmedizin, Klinische Chemie",
      "value_en": "Toxicology, Occupational Medicine, Clinical Chemistry"
  },
  {
      "_vocabulary": "dfg_fachsystematik",
      "key": "205-11",
      "parentEntity": "205",
      "primaryValue": "Anästhesiologie",
      "value_de": "Anästhesiologie",
      "value_en": "Anaesthesiology"
  },
  {
      "_vocabulary": "dfg_fachsystematik",
      "key": "205-12",
      "parentEntity": "205",
      "primaryValue": "Kardiologie, Angiologie",
      "value_de": "Kardiologie, Angiologie",
      "value_en": "Cardiology, Angiology"
  },
  {
      "_vocabulary": "dfg_fachsystematik",
      "key": "205-13",
      "parentEntity": "205",
      "primaryValue": "Pneumologie, Thoraxchirurgie",
      "value_de": "Pneumologie, Thoraxchirurgie",
      "value_en": "Pneumology, Thoracic Surgery"
  },
  {
      "_vocabulary": "dfg_fachsystematik",
      "key": "205-14",
      "parentEntity": "205",
      "primaryValue": "Hämatologie, Onkologie",
      "value_de": "Hämatologie, Onkologie",
      "value_en": "Hematology, Oncology"
  },
  {
      "_vocabulary": "dfg_fachsystematik",
      "key": "205-15",
      "parentEntity": "205",
      "primaryValue": "Gastroenterologie",
      "value_de": "Gastroenterologie",
      "value_en": "Gastroenterology"
  },
  {
      "_vocabulary": "dfg_fachsystematik",
      "key": "205-16",
      "parentEntity": "205",
      "primaryValue": "Nephrologie",
      "value_de": "Nephrologie",
      "value_en": "Nephrology"
  },
  {
      "_vocabulary": "dfg_fachsystematik",
      "key": "205-17",
      "parentEntity": "205",
      "primaryValue": "Endokrinologie, Diabetologie, Metabolismus",
      "value_de": "Endokrinologie, Diabetologie, Metabolismus",
      "value_en": "Endocrinology, Diabetology, Metabolism"
  },
  {
      "_vocabulary": "dfg_fachsystematik",
      "key": "205-18",
      "parentEntity": "205",
      "primaryValue": "Rheumatologie",
      "value_de": "Rheumatologie",
      "value_en": "Rheumatology"
  },
  {
      "_vocabulary": "dfg_fachsystematik",
      "key": "205-19",
      "parentEntity": "205",
      "primaryValue": "Dermatologie",
      "value_de": "Dermatologie",
      "value_en": "Dermatology"
  },
  {
      "_vocabulary": "dfg_fachsystematik",
      "key": "205-20",
      "parentEntity": "205",
      "primaryValue": "Kinder- und Jugendmedizin",
      "value_de": "Kinder- und Jugendmedizin",
      "value_en": "Pediatric and Adolescent Medicine"
  },
  {
      "_vocabulary": "dfg_fachsystematik",
      "key": "205-21",
      "parentEntity": "205",
      "primaryValue": "Gynäkologie und Geburtshilfe",
      "value_de": "Gynäkologie und Geburtshilfe",
      "value_en": "Gynaecology and Obstetrics"
  },
  {
      "_vocabulary": "dfg_fachsystematik",
      "key": "205-22",
      "parentEntity": "205",
      "primaryValue": "Klinische Immunologie und Allergologie",
      "value_de": "Klinische Immunologie und Allergologie",
      "value_en": "Clinical Immunology and Allergology"
  },
  {
      "_vocabulary": "dfg_fachsystematik",
      "key": "205-23",
      "parentEntity": "205",
      "primaryValue": "Reproduktionsmedizin, Urologie",
      "value_de": "Reproduktionsmedizin, Urologie",
      "value_en": "Reproductive Medicine, Urology"
  },
  {
      "_vocabulary": "dfg_fachsystematik",
      "key": "205-24",
      "parentEntity": "205",
      "primaryValue": "Gerontobiologie und Geriatrie",
      "value_de": "Gerontobiologie und Geriatrie",
      "value_en": "Biogerontology and Geriatric Medicine"
  },
  {
      "_vocabulary": "dfg_fachsystematik",
      "key": "205-25",
      "parentEntity": "205",
      "primaryValue": "Allgemein- und Viszeralchirurgie",
      "value_de": "Allgemein- und Viszeralchirurgie",
      "value_en": "General and Visceral Surgery"
  },
  {
      "_vocabulary": "dfg_fachsystematik",
      "key": "205-26",
      "parentEntity": "205",
      "primaryValue": "Herz- und Gefäßchirurgie",
      "value_de": "Herz- und Gefäßchirurgie",
      "value_en": "Cardiac and Vascular Sugery"
  },
  {
      "_vocabulary": "dfg_fachsystematik",
      "key": "205-27",
      "parentEntity": "205",
      "primaryValue": "Orthopädie, Unfallchirurgie, rekonstruktive Chirurgie",
      "value_de": "Orthopädie, Unfallchirurgie, rekonstruktive Chirurgie",
      "value_en": "Orthopaedics, Traumatology, Reconstructive Surgery"
  },
  {
      "_vocabulary": "dfg_fachsystematik",
      "key": "205-28",
      "parentEntity": "205",
      "primaryValue": "Zahnheilkunde; Mund-, Kiefer- und Gesichtschirurgie",
      "value_de": "Zahnheilkunde; Mund-, Kiefer- und Gesichtschirurgie",
      "value_en": "Dentistry, Oral Surgery"
  },
  {
      "_vocabulary": "dfg_fachsystematik",
      "key": "205-29",
      "parentEntity": "205",
      "primaryValue": "Hals-Nasen-Ohrenheilkunde",
      "value_de": "Hals-Nasen-Ohrenheilkunde",
      "value_en": "Otolaryngology"
  },
  {
      "_vocabulary": "dfg_fachsystematik",
      "key": "205-30",
      "parentEntity": "205",
      "primaryValue": "Radiologie, Nuklearmedizin, Strahlentherapie, Strahlenbiologie",
      "value_de": "Radiologie, Nuklearmedizin, Strahlentherapie, Strahlenbiologie",
      "value_en": "Radiology, Nuclear Medicine, Radiotherapy, Radiobiology"
  },
  {
      "_vocabulary": "dfg_fachsystematik",
      "key": "205-31",
      "parentEntity": "205",
      "primaryValue": "Klinische Infektiologie und Tropenmedizin",
      "value_de": "Klinische Infektiologie und Tropenmedizin",
      "value_en": "Clinical Infectiology and Tropical Medicine"
  },
  {
      "_vocabulary": "dfg_fachsystematik",
      "key": "205-32",
      "parentEntity": "205",
      "primaryValue": "Medizinische Physik, Biomedizinische Technik",
      "value_de": "Medizinische Physik, Biomedizinische Technik",
      "value_en": "Medical Physics, Biomedical Technology"
  },
  {
      "_vocabulary": "dfg_fachsystematik",
      "key": "205-33",
      "parentEntity": "205",
      "primaryValue": "Anatomie",
      "value_de": "Anatomie",
      "value_en": "Anatomy"
  },
  {
      "_vocabulary": "dfg_fachsystematik",
      "key": "206-01",
      "parentEntity": "206",
      "primaryValue": "Entwicklungsneurobiologie",
      "value_de": "Entwicklungsneurobiologie",
      "value_en": "Developmental Neurobiology"
  },
  {
      "_vocabulary": "dfg_fachsystematik",
      "key": "206-02",
      "parentEntity": "206",
      "primaryValue": "Molekulare Biologie und Physiologie von Nerven- und Gliazellen",
      "value_de": "Molekulare Biologie und Physiologie von Nerven- und Gliazellen",
      "value_en": "Molecular Biology and Physiology of Neurons and Glial Cells"
  },
  {
      "_vocabulary": "dfg_fachsystematik",
      "key": "206-03",
      "parentEntity": "206",
      "primaryValue": "Experimentelle und theoretische Netzwerk-Neurowissenschaften",
      "value_de": "Experimentelle und theoretische Netzwerk-Neurowissenschaften",
      "value_en": "Experimental and Theoretical Network Neuroscience"
  },
  {
      "_vocabulary": "dfg_fachsystematik",
      "key": "206-04",
      "parentEntity": "206",
      "primaryValue": "Kognitive, systemische und Verhaltensneurobiologie",
      "value_de": "Kognitive, systemische und Verhaltensneurobiologie",
      "value_en": "Cognitive, Systems and Behavioural Neurobiology"
  },
  {
      "_vocabulary": "dfg_fachsystematik",
      "key": "206-05",
      "parentEntity": "206",
      "primaryValue": "Experimentelle Modelle zum Verständnis von Erkrankungen des Nervensystems",
      "value_de": "Experimentelle Modelle zum Verständnis von Erkrankungen des Nervensystems",
      "value_en": "Experimental Models for the Understanding of Nervous System Diseases"
  },
  {
      "_vocabulary": "dfg_fachsystematik",
      "key": "206-06",
      "parentEntity": "206",
      "primaryValue": "Molekulare und zelluläre Neurologie und Neuropathologie",
      "value_de": "Molekulare und zelluläre Neurologie und Neuropathologie",
      "value_en": "Molecular and Cellular Neurology and Neuropathology"
  },
  {
      "_vocabulary": "dfg_fachsystematik",
      "key": "206-07",
      "parentEntity": "206",
      "primaryValue": "Klinische Neurologie; Neurochirurgie und Neuroradiologie",
      "value_de": "Klinische Neurologie; Neurochirurgie und Neuroradiologie",
      "value_en": "Clinical Neurosciences; Neurosurgery and Neuroradiology"
  },
  {
      "_vocabulary": "dfg_fachsystematik",
      "key": "206-08",
      "parentEntity": "206",
      "primaryValue": "Kognitive und systemische Humanneurowissenschaften",
      "value_de": "Kognitive und systemische Humanneurowissenschaften",
      "value_en": "Human Cognitive and Systems Neuroscience"
  },
  {
      "_vocabulary": "dfg_fachsystematik",
      "key": "206-09",
      "parentEntity": "206",
      "primaryValue": "Biologische Psychiatrie",
      "value_de": "Biologische Psychiatrie",
      "value_en": "Biological Psychiatry"
  },
  {
      "_vocabulary": "dfg_fachsystematik",
      "key": "206-10",
      "parentEntity": "206",
      "primaryValue": "Klinische Psychiatrie, Psychotherapie und Kinder- und Jugendpsychiatrie",
      "value_de": "Klinische Psychiatrie, Psychotherapie und Kinder- und Jugendpsychiatrie",
      "value_en": "Clinical Psychiatry, Psychotherapy, Child and Adolescent Psychiatry"
  },
  {
      "_vocabulary": "dfg_fachsystematik",
      "key": "206-11",
      "parentEntity": "206",
      "primaryValue": "Augenheilkunde",
      "value_de": "Augenheilkunde",
      "value_en": "Ophthalmology"
  },
  {
      "_vocabulary": "dfg_fachsystematik",
      "key": "207-01",
      "parentEntity": "207",
      "primaryValue": "Bodenwissenschaften",
      "value_de": "Bodenwissenschaften",
      "value_en": "Soil Sciences"
  },
  {
      "_vocabulary": "dfg_fachsystematik",
      "key": "207-02",
      "parentEntity": "207",
      "primaryValue": "Pflanzenzüchtung, Pflanzenpathologie",
      "value_de": "Pflanzenzüchtung, Pflanzenpathologie",
      "value_en": "Plant Breeding and Plant Pathology"
  },
  {
      "_vocabulary": "dfg_fachsystematik",
      "key": "207-03",
      "parentEntity": "207",
      "primaryValue": "Pflanzenbau, Pflanzenernährung, Agrartechnik",
      "value_de": "Pflanzenbau, Pflanzenernährung, Agrartechnik",
      "value_en": "Plant Cultivation, Plant Nutrition, Agricultural Technology"
  },
  {
      "_vocabulary": "dfg_fachsystematik",
      "key": "207-04",
      "parentEntity": "207",
      "primaryValue": "Ökologie der Landnutzung",
      "value_de": "Ökologie der Landnutzung",
      "value_en": "Ecology of Land Use"
  },
  {
      "_vocabulary": "dfg_fachsystematik",
      "key": "207-05",
      "parentEntity": "207",
      "primaryValue": "Agrarökonomie, Agrarpolitik, Agrarsoziologie",
      "value_de": "Agrarökonomie, Agrarpolitik, Agrarsoziologie",
      "value_en": "Agricultural Economics, Agricultural Policy, Agricultural Sociology"
  },
  {
      "_vocabulary": "dfg_fachsystematik",
      "key": "207-06",
      "parentEntity": "207",
      "primaryValue": "Forstwissenschaften",
      "value_de": "Forstwissenschaften",
      "value_en": "Forestry"
  },
  {
      "_vocabulary": "dfg_fachsystematik",
      "key": "207-07",
      "parentEntity": "207",
      "primaryValue": "Tierzucht, Tierernährung, Tierhaltung",
      "value_de": "Tierzucht, Tierernährung, Tierhaltung",
      "value_en": "Animal Breeding, Animal Nutrition, Animal Husbandry"
  },
  {
      "_vocabulary": "dfg_fachsystematik",
      "key": "207-08",
      "parentEntity": "207",
      "primaryValue": "Tiermedizin",
      "value_de": "Tiermedizin",
      "value_en": "Veterinary Medical Science"
  },
  {
      "_vocabulary": "dfg_fachsystematik",
      "key": "307-01",
      "parentEntity": "307",
      "primaryValue": "Experimentelle Physik der kondensierten Materie",
      "value_de": "Experimentelle Physik der kondensierten Materie",
      "value_en": "Experimental Condensed Matter Physics"
  },
  {
      "_vocabulary": "dfg_fachsystematik",
      "key": "307-02",
      "parentEntity": "307",
      "primaryValue": "Theoretische Physik der kondensierten Materie",
      "value_de": "Theoretische Physik der kondensierten Materie",
      "value_en": "Theoretical Condensed Matter Physics"
  },
  {
      "_vocabulary": "dfg_fachsystematik",
      "key": "308-01",
      "parentEntity": "308",
      "primaryValue": "Optik, Quantenoptik, Physik der Atome, Moleküle und Plasmen",
      "value_de": "Optik, Quantenoptik, Physik der Atome, Moleküle und Plasmen",
      "value_en": "Optics, Quantum Optics, Atoms, Molecules, Plasmas"
  },
  {
      "_vocabulary": "dfg_fachsystematik",
      "key": "309-01",
      "parentEntity": "309",
      "primaryValue": "Kern- und Elementarteilchenphysik, Quantenmechanik, Relativitätstheorie, Felder",
      "value_de": "Kern- und Elementarteilchenphysik, Quantenmechanik, Relativitätstheorie, Felder",
      "value_en": "Nuclear and Elementary Particle Physics, Quantum Mechanics, Relativity, Fields"
  },
  {
      "_vocabulary": "dfg_fachsystematik",
      "key": "310-01",
      "parentEntity": "310",
      "primaryValue": "Statistische Physik, Weiche Materie, Biologische Physik, Nichtlineare Dynamik",
      "value_de": "Statistische Physik, Weiche Materie, Biologische Physik, Nichtlineare Dynamik",
      "value_en": "Statistical Physics, Soft Matter, Biological Physics, Nonlinear Dynamics"
  },
  {
      "_vocabulary": "dfg_fachsystematik",
      "key": "311-01",
      "parentEntity": "311",
      "primaryValue": "Astrophysik und Astronomie",
      "value_de": "Astrophysik und Astronomie",
      "value_en": "Astrophysics and Astronomy"
  },
  {
      "_vocabulary": "dfg_fachsystematik",
      "key": "312-01",
      "parentEntity": "312",
      "primaryValue": "Mathematik",
      "value_de": "Mathematik",
      "value_en": "Mathematics"
  },
  {
      "_vocabulary": "dfg_fachsystematik",
      "key": "313-01",
      "parentEntity": "313",
      "primaryValue": "Physik und Chemie der Atmosphäre",
      "value_de": "Physik und Chemie der Atmosphäre",
      "value_en": "Atmospheric Science"
  },
  {
      "_vocabulary": "dfg_fachsystematik",
      "key": "313-02",
      "parentEntity": "313",
      "primaryValue": "Physik, Chemie und Biologie des Meeres",
      "value_de": "Physik, Chemie und Biologie des Meeres",
      "value_en": "Oceanography"
  },
  {
      "_vocabulary": "dfg_fachsystematik",
      "key": "314-01",
      "parentEntity": "314",
      "primaryValue": "Geologie, Ingenieurgeologie, Paläontologie",
      "value_de": "Geologie, Ingenieurgeologie, Paläontologie",
      "value_en": "Geology and Palaeontology"
  },
  {
      "_vocabulary": "dfg_fachsystematik",
      "key": "315-01",
      "parentEntity": "315",
      "primaryValue": "Physik des Erdkörpers",
      "value_de": "Physik des Erdkörpers",
      "value_en": "Geophysics"
  },
  {
      "_vocabulary": "dfg_fachsystematik",
      "key": "315-02",
      "parentEntity": "315",
      "primaryValue": "Geodäsie, Photogrammetrie, Fernerkundung, Geoinformatik, Kartographie",
      "value_de": "Geodäsie, Photogrammetrie, Fernerkundung, Geoinformatik, Kartographie",
      "value_en": "Geodesy, Photogrammetry, Remote Sensing, Geoinformatics, Cartography"
  },
  {
      "_vocabulary": "dfg_fachsystematik",
      "key": "316-01",
      "parentEntity": "316",
      "primaryValue": "Mineralogie, Petrologie und Geochemie",
      "value_de": "Mineralogie, Petrologie und Geochemie",
      "value_en": "Mineralogy, Petrology and Geochemistry"
  },
  {
      "_vocabulary": "dfg_fachsystematik",
      "key": "317-01",
      "parentEntity": "317",
      "primaryValue": "Physische Geographie",
      "value_de": "Physische Geographie",
      "value_en": "Physical Geography"
  },
  {
      "_vocabulary": "dfg_fachsystematik",
      "key": "317-02",
      "parentEntity": "317",
      "primaryValue": "Humangeographie",
      "value_de": "Humangeographie",
      "value_en": "Human Geography"
  },
  {
      "_vocabulary": "dfg_fachsystematik",
      "key": "318-01",
      "parentEntity": "318",
      "primaryValue": "Hydrogeologie, Hydrologie, Limnologie, Siedlungswasserwirtschaft, Wasserchemie, Integrierte Wasserressourcen-Bewirtschaftung",
      "value_de": "Hydrogeologie, Hydrologie, Limnologie, Siedlungswasserwirtschaft, Wasserchemie, Integrierte Wasserressourcen-Bewirtschaftung",
      "value_en": "Hydrogeology, Hydrology, Limnology, Urban Water Management, Water Chemistry, Integrated Water Resources Management"
  },
  {
      "_vocabulary": "dfg_fachsystematik",
      "key": "321-01",
      "parentEntity": "321",
      "primaryValue": "Anorganische Molekülchemie - Synthese, Charakterisierung",
      "value_de": "Anorganische Molekülchemie - Synthese, Charakterisierung",
      "value_en": "Inorganic Molecular Chemistry - Synthesis and Characterisation"
  },
  {
      "_vocabulary": "dfg_fachsystematik",
      "key": "321-02",
      "parentEntity": "321",
      "primaryValue": "Organische Molekülchemie - Synthese, Charakterisierung",
      "value_de": "Organische Molekülchemie - Synthese, Charakterisierung",
      "value_en": "Organic Molecular Chemistry - Synthesis and Characterisation"
  },
  {
      "_vocabulary": "dfg_fachsystematik",
      "key": "322-01",
      "parentEntity": "322",
      "primaryValue": "Festkörper- und Oberflächenchemie, Materialsynthese",
      "value_de": "Festkörper- und Oberflächenchemie, Materialsynthese",
      "value_en": "Solid State and Surface Chemistry, Material Synthesis"
  },
  {
      "_vocabulary": "dfg_fachsystematik",
      "key": "322-02",
      "parentEntity": "322",
      "primaryValue": "Physikalische Chemie von Festkörpern und Oberflächen, Materialcharakterisierung",
      "value_de": "Physikalische Chemie von Festkörpern und Oberflächen, Materialcharakterisierung",
      "value_en": "Physical Chemistry of Solids and Surfaces, Material Characterisation"
  },
  {
      "_vocabulary": "dfg_fachsystematik",
      "key": "323-01",
      "parentEntity": "323",
      "primaryValue": "Physikalische Chemie von Molekülen, Flüssigkeiten und Grenzflächen; Biophysikalische Chemie",
      "value_de": "Physikalische Chemie von Molekülen, Flüssigkeiten und Grenzflächen; Biophysikalische Chemie",
      "value_en": "Physical Chemistry of Molecules, Liquids and Interfaces, Biophysical Chemistry"
  },
  {
      "_vocabulary": "dfg_fachsystematik",
      "key": "324-01",
      "parentEntity": "324",
      "primaryValue": "Analytische Chemie",
      "value_de": "Analytische Chemie",
      "value_en": "Analytical Chemistry"
  },
  {
      "_vocabulary": "dfg_fachsystematik",
      "key": "325-01",
      "parentEntity": "325",
      "primaryValue": "Biologische und Biomimetische Chemie",
      "value_de": "Biologische und Biomimetische Chemie",
      "value_en": "Biological and Biomimetic Chemistry"
  },
  {
      "_vocabulary": "dfg_fachsystematik",
      "key": "325-02",
      "parentEntity": "325",
      "primaryValue": "Lebensmittelchemie",
      "value_de": "Lebensmittelchemie",
      "value_en": "Food Chemistry"
  },
  {
      "_vocabulary": "dfg_fachsystematik",
      "key": "326-01",
      "parentEntity": "326",
      "primaryValue": "Präparative und Physikalische Chemie von Polymeren",
      "value_de": "Präparative und Physikalische Chemie von Polymeren",
      "value_en": "Preparatory and Physical Chemistry of Polymers"
  },
  {
      "_vocabulary": "dfg_fachsystematik",
      "key": "326-02",
      "parentEntity": "326",
      "primaryValue": "Experimentelle und Theoretische Polymerphysik",
      "value_de": "Experimentelle und Theoretische Polymerphysik",
      "value_en": "Experimental and Theoretical Physics of Polymers"
  },
  {
      "_vocabulary": "dfg_fachsystematik",
      "key": "326-03",
      "parentEntity": "326",
      "primaryValue": "Polymermaterialien",
      "value_de": "Polymermaterialien",
      "value_en": "Polymer Materials"
  },
  {
      "_vocabulary": "dfg_fachsystematik",
      "key": "327-01",
      "parentEntity": "327",
      "primaryValue": "Elektronenstruktur, Dynamik, Simulation",
      "value_de": "Elektronenstruktur, Dynamik, Simulation",
      "value_en": "Electron Structure, Dynamics, Simulation"
  },
  {
      "_vocabulary": "dfg_fachsystematik",
      "key": "327-02",
      "parentEntity": "327",
      "primaryValue": "Moleküle, Materialien, Oberflächen",
      "value_de": "Moleküle, Materialien, Oberflächen",
      "value_en": "Molecules, Materials, Surfaces"
  },
  {
      "_vocabulary": "dfg_fachsystematik",
      "key": "401-01",
      "parentEntity": "401",
      "primaryValue": "Spanende und abtragende Fertigungstechnik",
      "value_de": "Spanende und abtragende Fertigungstechnik",
      "value_en": "Metal-Cutting and Abrasive Manufacturing Engineering"
  },
  {
      "_vocabulary": "dfg_fachsystematik",
      "key": "401-02",
      "parentEntity": "401",
      "primaryValue": "Ur- und Umformtechnik, Additive Fertigungsverfahren",
      "value_de": "Ur- und Umformtechnik, Additive Fertigungsverfahren",
      "value_en": "Primary Shaping and Reshaping Technology, Additive Manufacturing"
  },
  {
      "_vocabulary": "dfg_fachsystematik",
      "key": "401-03",
      "parentEntity": "401",
      "primaryValue": "Fügetechnik und Trenntechnik",
      "value_de": "Fügetechnik und Trenntechnik",
      "value_en": "Joining and Separation Technology"
  },
  {
      "_vocabulary": "dfg_fachsystematik",
      "key": "401-04",
      "parentEntity": "401",
      "primaryValue": "Kunststofftechnik",
      "value_de": "Kunststofftechnik",
      "value_en": "Plastics Engineering"
  },
  {
      "_vocabulary": "dfg_fachsystematik",
      "key": "401-05",
      "parentEntity": "401",
      "primaryValue": "Produktionssystematik, Betriebswissenschaften, Qualitätsmanagement und Fabrikplanung",
      "value_de": "Produktionssystematik, Betriebswissenschaften, Qualitätsmanagement und Fabrikplanung",
      "value_en": "Production Systems, Operations Management, Quality Management and Factory Planning"
  },
  {
      "_vocabulary": "dfg_fachsystematik",
      "key": "401-06",
      "parentEntity": "401",
      "primaryValue": "Produktionsautomatisierung",
      "value_de": "Produktionsautomatisierung",
      "value_en": "Production Automation"
  },
  {
      "_vocabulary": "dfg_fachsystematik",
      "key": "402-01",
      "parentEntity": "402",
      "primaryValue": "Konstruktion, Maschinenelemente, Produktentwicklung",
      "value_de": "Konstruktion, Maschinenelemente, Produktentwicklung",
      "value_en": "Engineering Design, Machine Elements, Product Development"
  },
  {
      "_vocabulary": "dfg_fachsystematik",
      "key": "402-02",
      "parentEntity": "402",
      "primaryValue": "Mechanik",
      "value_de": "Mechanik",
      "value_en": "Mechanics"
  },
  {
      "_vocabulary": "dfg_fachsystematik",
      "key": "402-03",
      "parentEntity": "402",
      "primaryValue": "Leichtbau, Textiltechnik",
      "value_de": "Leichtbau, Textiltechnik",
      "value_en": "Lightweight Construction, Textile Technology"
  },
  {
      "_vocabulary": "dfg_fachsystematik",
      "key": "402-04",
      "parentEntity": "402",
      "primaryValue": "Akustik",
      "value_de": "Akustik",
      "value_en": "Acoustics"
  },
  {
      "_vocabulary": "dfg_fachsystematik",
      "key": "403-01",
      "parentEntity": "403",
      "primaryValue": "Chemische und Thermische Verfahrenstechnik",
      "value_de": "Chemische und Thermische Verfahrenstechnik",
      "value_en": "Chemical and Thermal Process Engineering"
  },
  {
      "_vocabulary": "dfg_fachsystematik",
      "key": "403-02",
      "parentEntity": "403",
      "primaryValue": "Technische Chemie",
      "value_de": "Technische Chemie",
      "value_en": "Technical Chemistry"
  },
  {
      "_vocabulary": "dfg_fachsystematik",
      "key": "403-03",
      "parentEntity": "403",
      "primaryValue": "Mechanische Verfahrenstechnik",
      "value_de": "Mechanische Verfahrenstechnik",
      "value_en": "Mechanical Process Engineering"
  },
  {
      "_vocabulary": "dfg_fachsystematik",
      "key": "403-04",
      "parentEntity": "403",
      "primaryValue": "Bioverfahrenstechnik",
      "value_de": "Bioverfahrenstechnik",
      "value_en": "Biological Process Engineering"
  },
  {
      "_vocabulary": "dfg_fachsystematik",
      "key": "404-01",
      "parentEntity": "404",
      "primaryValue": "Energieverfahrenstechnik",
      "value_de": "Energieverfahrenstechnik",
      "value_en": "Energy Process Engineering"
  },
  {
      "_vocabulary": "dfg_fachsystematik",
      "key": "404-02",
      "parentEntity": "404",
      "primaryValue": "Technische Thermodynamik",
      "value_de": "Technische Thermodynamik",
      "value_en": "Technical Thermodynamics"
  },
  {
      "_vocabulary": "dfg_fachsystematik",
      "key": "404-03",
      "parentEntity": "404",
      "primaryValue": "Strömungsmechanik",
      "value_de": "Strömungsmechanik",
      "value_en": "Fluid Mechanics"
  },
  {
      "_vocabulary": "dfg_fachsystematik",
      "key": "404-04",
      "parentEntity": "404",
      "primaryValue": "Strömungs- und Kolbenmaschinen",
      "value_de": "Strömungs- und Kolbenmaschinen",
      "value_en": "Hydraulic and Turbo Engines and Piston Engines"
  },
  {
      "_vocabulary": "dfg_fachsystematik",
      "key": "405-01",
      "parentEntity": "405",
      "primaryValue": "Metallurgische, thermische und thermomechanische Behandlung von Werkstoffen",
      "value_de": "Metallurgische, thermische und thermomechanische Behandlung von Werkstoffen",
      "value_en": "Metallurgical, Thermal and Thermomechanical Treatment of Materials"
  },
  {
      "_vocabulary": "dfg_fachsystematik",
      "key": "405-02",
      "parentEntity": "405",
      "primaryValue": "Materialien und Werkstoffe der Sinterprozesse und der generativen Fertigungsverfahren",
      "value_de": "Materialien und Werkstoffe der Sinterprozesse und der generativen Fertigungsverfahren",
      "value_en": "Materials in Sintering Processes and Generative Manufacturing Processes"
  },
  {
      "_vocabulary": "dfg_fachsystematik",
      "key": "405-03",
      "parentEntity": "405",
      "primaryValue": "Beschichtungs- und Oberflächentechnik",
      "value_de": "Beschichtungs- und Oberflächentechnik",
      "value_en": "Coating and Surface Technology"
  },
  {
      "_vocabulary": "dfg_fachsystematik",
      "key": "405-04",
      "parentEntity": "405",
      "primaryValue": "Mechanische Eigenschaften von metallischen Werkstoffen und ihre mikrostrukturellen Ursachen",
      "value_de": "Mechanische Eigenschaften von metallischen Werkstoffen und ihre mikrostrukturellen Ursachen",
      "value_en": "Mechanical Properties of Metallic Materials and their Microstructural Origins"
  },
  {
      "_vocabulary": "dfg_fachsystematik",
      "key": "405-05",
      "parentEntity": "405",
      "primaryValue": "Glas und Keramik und darauf basierende Verbundwerkstoffe",
      "value_de": "Glas und Keramik und darauf basierende Verbundwerkstoffe",
      "value_en": "Glass, Ceramics and Derived Composites"
  },
  {
      "_vocabulary": "dfg_fachsystematik",
      "key": "405-06",
      "parentEntity": "405",
      "primaryValue": "Polymere und biogene Werkstoffe und darauf basierende Verbundwerkstoffe",
      "value_de": "Polymere und biogene Werkstoffe und darauf basierende Verbundwerkstoffe",
      "value_en": "Polymeric and Biogenic Materials and Derived Composites"
  },
  {
      "_vocabulary": "dfg_fachsystematik",
      "key": "406-01",
      "parentEntity": "406",
      "primaryValue": "Herstellung und Eigenschaften von Funktionsmaterialien",
      "value_de": "Herstellung und Eigenschaften von Funktionsmaterialien",
      "value_en": "Synthesis and Properties of Functional Materials"
  },
  {
      "_vocabulary": "dfg_fachsystematik",
      "key": "406-02",
      "parentEntity": "406",
      "primaryValue": "Biomaterialien",
      "value_de": "Biomaterialien",
      "value_en": "Biomaterials"
  },
  {
      "_vocabulary": "dfg_fachsystematik",
      "key": "406-03",
      "parentEntity": "406",
      "primaryValue": "Thermodynamik und Kinetik sowie Eigenschaften der Phasen und Gefüge von Werkstoffen",
      "value_de": "Thermodynamik und Kinetik sowie Eigenschaften der Phasen und Gefüge von Werkstoffen",
      "value_en": "Thermodynamics and Kinetics as well as Properties of Phases and Microstructure of Materials"
  },
  {
      "_vocabulary": "dfg_fachsystematik",
      "key": "406-04",
      "parentEntity": "406",
      "primaryValue": "Computergestütztes Werkstoffdesign und Simulation von Werkstoffverhalten von atomistischer bis mikroskopischer Skala",
      "value_de": "Computergestütztes Werkstoffdesign und Simulation von Werkstoffverhalten von atomistischer bis mikroskopischer Skala",
      "value_en": "Computer-Aided Design of Materials and Simulation of Materials Behaviour from Atomic to Microscopic Scale"
  },
  {
      "_vocabulary": "dfg_fachsystematik",
      "key": "407-01",
      "parentEntity": "407",
      "primaryValue": "Automatisierungstechnik, Regelungssysteme, Robotik, Mechatronik, Cyber Physical Systems",
      "value_de": "Automatisierungstechnik, Regelungssysteme, Robotik, Mechatronik, Cyber Physical Systems",
      "value_en": "Automation, Control Systems, Robotics, Mechatronics, Cyber Physical Systems"
  },
  {
      "_vocabulary": "dfg_fachsystematik",
      "key": "407-02",
      "parentEntity": "407",
      "primaryValue": "Messsysteme",
      "value_de": "Messsysteme",
      "value_en": "Measurement Systems"
  },
  {
      "_vocabulary": "dfg_fachsystematik",
      "key": "407-03",
      "parentEntity": "407",
      "primaryValue": "Mikrosysteme",
      "value_de": "Mikrosysteme",
      "value_en": "Microsystems"
  },
  {
      "_vocabulary": "dfg_fachsystematik",
      "key": "407-04",
      "parentEntity": "407",
      "primaryValue": "Verkehrs- und Transportsysteme, Intelligenter und automatisierter Verkehr",
      "value_de": "Verkehrs- und Transportsysteme, Intelligenter und automatisierter Verkehr",
      "value_en": "Traffic and Transport Systems, Logistics, Intelligent and Automated Traffic"
  },
  {
      "_vocabulary": "dfg_fachsystematik",
      "key": "407-05",
      "parentEntity": "407",
      "primaryValue": "Arbeitswissenschaft, Ergonomie, Mensch-Maschine-Systeme",
      "value_de": "Arbeitswissenschaft, Ergonomie, Mensch-Maschine-Systeme",
      "value_en": "Human Factors, Ergonomics, Human-Machine Systems"
  },
  {
      "_vocabulary": "dfg_fachsystematik",
      "key": "407-06",
      "parentEntity": "407",
      "primaryValue": "Biomedizinische Systemtechnik",
      "value_de": "Biomedizinische Systemtechnik",
      "value_en": "Biomedical Systems Technology"
  },
  {
      "_vocabulary": "dfg_fachsystematik",
      "key": "408-01",
      "parentEntity": "408",
      "primaryValue": "Elektronische Halbleiter, Bauelemente und Schaltungen, Integrierte Systeme",
      "value_de": "Elektronische Halbleiter, Bauelemente und Schaltungen, Integrierte Systeme",
      "value_en": "Electronic Semiconductors, Components, Circuits, Systems"
  },
  {
      "_vocabulary": "dfg_fachsystematik",
      "key": "408-02",
      "parentEntity": "408",
      "primaryValue": "Nachrichten- und Hochfrequenztechnik, Kommunikationstechnik und -netze, Theoretische Elektrotechnik",
      "value_de": "Nachrichten- und Hochfrequenztechnik, Kommunikationstechnik und -netze, Theoretische Elektrotechnik",
      "value_en": "Communications, High-Frequency and Network Technology, Theoretical Electrical Engineering"
  },
  {
      "_vocabulary": "dfg_fachsystematik",
      "key": "408-03",
      "parentEntity": "408",
      "primaryValue": "Elektrische Energieerzeugung, -übertragung, -verteilung und -anwendung",
      "value_de": "Elektrische Energieerzeugung, -übertragung, -verteilung und -anwendung",
      "value_en": "Electrical Energy Generation, Distribution, Application"
  },
  {
      "_vocabulary": "dfg_fachsystematik",
      "key": "409-01",
      "parentEntity": "409",
      "primaryValue": "Theoretische Informatik",
      "value_de": "Theoretische Informatik",
      "value_en": "Theoretical Computer Science"
  },
  {
      "_vocabulary": "dfg_fachsystematik",
      "key": "409-02",
      "parentEntity": "409",
      "primaryValue": "Softwaretechnik und Programmiersprachen",
      "value_de": "Softwaretechnik und Programmiersprachen",
      "value_en": "Software Engineering and Programming Languages"
  },
  {
      "_vocabulary": "dfg_fachsystematik",
      "key": "409-03",
      "parentEntity": "409",
      "primaryValue": "Sicherheit und Verlässlichkeit",
      "value_de": "Sicherheit und Verlässlichkeit",
      "value_en": "Security and Dependability"
  },
  {
      "_vocabulary": "dfg_fachsystematik",
      "key": "409-04",
      "parentEntity": "409",
      "primaryValue": "Betriebs-, Kommunikations-, Datenbank- und verteilte Systeme",
      "value_de": "Betriebs-, Kommunikations-, Datenbank- und verteilte Systeme",
      "value_en": "Operating, Communication, Database and Distributed Systems"
  },
  {
      "_vocabulary": "dfg_fachsystematik",
      "key": "409-05",
      "parentEntity": "409",
      "primaryValue": "Interaktive und intelligente Systeme, Bild- und Sprachverarbeitung, Computergraphik und Visualisierung",
      "value_de": "Interaktive und intelligente Systeme, Bild- und Sprachverarbeitung, Computergraphik und Visualisierung",
      "value_en": "Interactive and Intelligent Systems, Image and Language Processing, Computer Graphics and Visualisation"
  },
  {
      "_vocabulary": "dfg_fachsystematik",
      "key": "409-06",
      "parentEntity": "409",
      "primaryValue": "Informationssysteme, Prozess- und Wissensmanagement",
      "value_de": "Informationssysteme, Prozess- und Wissensmanagement",
      "value_en": "Information Systems, Process and Knowledge Management"
  },
  {
      "_vocabulary": "dfg_fachsystematik",
      "key": "409-07",
      "parentEntity": "409",
      "primaryValue": "Rechnerarchitekturen und eingebettete Systeme",
      "value_de": "Rechnerarchitekturen und eingebettete Systeme",
      "value_en": "Computer Architecture and Embedded Systems"
  },
  {
      "_vocabulary": "dfg_fachsystematik",
      "key": "409-08",
      "parentEntity": "409",
      "primaryValue": "Massiv parallele und datenintensive Systeme",
      "value_de": "Massiv parallele und datenintensive Systeme",
      "value_en": "Massively Parallel and Data-Intensive Systems"
  },
  {
      "_vocabulary": "dfg_fachsystematik",
      "key": "410-01",
      "parentEntity": "410",
      "primaryValue": "Architektur, Bau- und Konstruktionsgeschichte, Bauforschung, Ressourcenökonomie im Bauwesen",
      "value_de": "Architektur, Bau- und Konstruktionsgeschichte, Bauforschung, Ressourcenökonomie im Bauwesen",
      "value_en": "Architecture, Building and Construction History, Construction Research, Sustainable Building Technology"
  },
  {
      "_vocabulary": "dfg_fachsystematik",
      "key": "410-02",
      "parentEntity": "410",
      "primaryValue": "Städtebau/Stadtentwicklung, Raumplanung, Verkehrs- und Infrastrukturplanung, Landschaftsplanung",
      "value_de": "Städtebau/Stadtentwicklung, Raumplanung, Verkehrs- und Infrastrukturplanung, Landschaftsplanung",
      "value_en": "Urbanism, Spatial Planning, Transportation and Infrastructure Planning, Landscape Planning"
  },
  {
      "_vocabulary": "dfg_fachsystematik",
      "key": "410-03",
      "parentEntity": "410",
      "primaryValue": "Baustoffwissenschaften, Bauchemie, Bauphysik",
      "value_de": "Baustoffwissenschaften, Bauchemie, Bauphysik",
      "value_en": "Construction Material Sciences, Chemistry, Building Physics"
  },
  {
      "_vocabulary": "dfg_fachsystematik",
      "key": "410-04",
      "parentEntity": "410",
      "primaryValue": "Konstruktiver Ingenieurbau, Bauinformatik und Baubetrieb",
      "value_de": "Konstruktiver Ingenieurbau, Bauinformatik und Baubetrieb",
      "value_en": "Structural Engineering, Building Informatics and Construction Operation"
  },
  {
      "_vocabulary": "dfg_fachsystematik",
      "key": "410-05",
      "parentEntity": "410",
      "primaryValue": "Angewandte Mechanik, Statik und Dynamik",
      "value_de": "Angewandte Mechanik, Statik und Dynamik",
      "value_en": "Applied Mechanics, Statics and Dynamics"
  },
  {
      "_vocabulary": "dfg_fachsystematik",
      "key": "410-06",
      "parentEntity": "410",
      "primaryValue": "Geotechnik, Wasserbau",
      "value_de": "Geotechnik, Wasserbau",
      "value_en": "Geotechnics, Hydraulic Engineering"
  },
  {
      "_vocabulary": "dfg_fachsystematik",
      "key": "23",
      "parentEntity": "2",
      "primaryValue": "Agrar-, Forstwissen- schaften und Tiermedizin",
      "value_de": "Agrar-, Forstwissen- schaften und Tiermedizin",
      "value_en": "Agriculture, Forestry and Veterinary Medicine"
  },
  {
      "_vocabulary": "dfg_fachsystematik",
      "key": "308",
      "parentEntity": "32",
      "primaryValue": "Optik, Quantenoptik und Physik der Atome, Moleküle und Plasmen",
      "value_de": "Optik, Quantenoptik und Physik der Atome, Moleküle und Plasmen",
      "value_en": "Optics, Quantum Optics and Physics of Atoms, Molecules and Plasmas"
  },
  {
      "_vocabulary": "dfg_fachsystematik",
      "key": "309",
      "parentEntity": "32",
      "primaryValue": "Teilchen, Kerne und Felder",
      "value_de": "Teilchen, Kerne und Felder",
      "value_en": "Particles, Nuclei and Fields"
  },
  {
      "_vocabulary": "dfg_fachsystematik",
      "key": "310",
      "parentEntity": "32",
      "primaryValue": "Statistische Physik, Weiche Materie, Biologische Physik, Nichtlineare Dynamik",
      "value_de": "Statistische Physik, Weiche Materie, Biologische Physik, Nichtlineare Dynamik",
      "value_en": "Statistical Physics, Soft Matter, Biological Physics, Nonlinear Dynamics"
  },
  {
      "_vocabulary": "dfg_fachsystematik",
      "key": "311",
      "parentEntity": "32",
      "primaryValue": "Astrophysik und Astronomie",
      "value_de": "Astrophysik und Astronomie",
      "value_en": "Astrophysics and Astronomy"
  },
  {
      "_vocabulary": "dfg_fachsystematik",
      "key": "312",
      "parentEntity": "33",
      "primaryValue": "Mathematik",
      "value_de": "Mathematik",
      "value_en": "Mathematics"
  },
  {
      "_vocabulary": "dfg_fachsystematik",
      "key": "314",
      "parentEntity": "34",
      "primaryValue": "Geologie und Paläontologie",
      "value_de": "Geologie und Paläontologie",
      "value_en": "Geology and Palaeontology"
  },
  {
      "_vocabulary": "dfg_fachsystematik",
      "key": "316",
      "parentEntity": "34",
      "primaryValue": "Mineralogie, Petrologie und Geochemie",
      "value_de": "Mineralogie, Petrologie und Geochemie",
      "value_en": "Mineralogy, Petrology and Geochemistry"
  },
  {
      "_vocabulary": "dfg_fachsystematik",
      "key": "318",
      "parentEntity": "34",
      "primaryValue": "Wasserforschung",
      "value_de": "Wasserforschung",
      "value_en": "Water Research"
  },
  {
      "_vocabulary": "dfg_fachsystematik",
      "key": "323",
      "parentEntity": "31",
      "primaryValue": "Physikalische Chemie",
      "value_de": "Physikalische Chemie",
      "value_en": "Physical Chemistry"
  },
  {
      "_vocabulary": "dfg_fachsystematik",
      "key": "324",
      "parentEntity": "31",
      "primaryValue": "Analytische Chemie",
      "value_de": "Analytische Chemie",
      "value_en": "Analytical Chemistry"
  },
  {
      "_vocabulary": "dfg_fachsystematik",
      "key": "33",
      "parentEntity": "3",
      "primaryValue": "Mathematik",
      "value_de": "Mathematik",
      "value_en": "Mathematics"
  },
  {
      "_vocabulary": "dfg_fachsystematik",
      "key": "45",
      "parentEntity": "4",
      "primaryValue": "Bauwesen und Architektur",
      "value_de": "Bauwesen und Architektur",
      "value_en": "Construction Engineering and Architecture"
  },
  {
      "_vocabulary": "dfg_fachsystematik",
      "key": "1",
      "parentEntity": "owl#Thing",
      "primaryValue": "Geistes- und Sozialwissenschaften",
      "value_de": "Geistes- und Sozialwissenschaften",
      "value_en": "Humanities and Social Sciences"
  },
  {
      "_vocabulary": "dfg_fachsystematik",
      "key": "107",
      "parentEntity": "11",
      "primaryValue": "Theologie",
      "value_de": "Theologie",
      "value_en": "Theology"
  },
  {
      "_vocabulary": "dfg_fachsystematik",
      "key": "307",
      "parentEntity": "32",
      "primaryValue": "Physik der kondensierten Materie",
      "value_de": "Physik der kondensierten Materie",
      "value_en": "Condensed Matter Physics"
  },
  {
      "_vocabulary": "dfg_fachsystematik",
      "key": "313",
      "parentEntity": "34",
      "primaryValue": "Atmosphären-, Meeres- und Klimaforschung",
      "value_de": "Atmosphären-, Meeres- und Klimaforschung",
      "value_en": "Atmospheric Science, Oceanography and Climate Research"
  },
  {
      "_vocabulary": "dfg_fachsystematik",
      "key": "315",
      "parentEntity": "34",
      "primaryValue": "Geophysik und Geodäsie",
      "value_de": "Geophysik und Geodäsie",
      "value_en": "Geophysics and Geodesy"
  },
  {
      "_vocabulary": "dfg_fachsystematik",
      "key": "317",
      "parentEntity": "34",
      "primaryValue": "Geographie",
      "value_de": "Geographie",
      "value_en": "Geography"
  },
  {
      "_vocabulary": "dfg_fachsystematik",
      "key": "321",
      "parentEntity": "31",
      "primaryValue": "Molekülchemie",
      "value_de": "Molekülchemie",
      "value_en": "Molecular Chemistry"
  },
  {
      "_vocabulary": "dfg_fachsystematik",
      "key": "322",
      "parentEntity": "31",
      "primaryValue": "Chemische Festkörper- und Oberflächenforschung",
      "value_de": "Chemische Festkörper- und Oberflächenforschung",
      "value_en": "Chemical Solid State and Surface Research"
  },
  {
      "_vocabulary": "dfg_fachsystematik",
      "key": "325",
      "parentEntity": "31",
      "primaryValue": "Biologische Chemie und Lebensmittelchemie",
      "value_de": "Biologische Chemie und Lebensmittelchemie",
      "value_en": "Biological Chemistry and Food Chemistry"
  },
  {
      "_vocabulary": "dfg_fachsystematik",
      "key": "327",
      "parentEntity": "31",
      "primaryValue": "Theoretische Chemie",
      "value_de": "Theoretische Chemie",
      "value_en": "Theoretical Chemistry"
  },
  {
      "_vocabulary": "dfg_fachsystematik",
      "key": "41",
      "parentEntity": "4",
      "primaryValue": "Maschinenbau und Produktionstechnik",
      "value_de": "Maschinenbau und Produktionstechnik",
      "value_en": "Mechanical and Industrial Engineering"
  },
  {
      "_vocabulary": "dfg_fachsystematik",
      "key": "42",
      "parentEntity": "4",
      "primaryValue": "Wärmetechnik/ Verfahrenstechnik",
      "value_de": "Wärmetechnik/ Verfahrenstechnik",
      "value_en": "Thermal Engineering/ Process Engineering"
  },
  {
      "_vocabulary": "dfg_fachsystematik",
      "key": "43",
      "parentEntity": "4",
      "primaryValue": "Materialwissenschaft und Werkstofftechnik",
      "value_de": "Materialwissenschaft und Werkstofftechnik",
      "value_en": "Materials Science and Engineering"
  },
  {
      "_vocabulary": "dfg_fachsystematik",
      "key": "103",
      "parentEntity": "11",
      "primaryValue": "Kunst-, Musik-, Theater- und Medienwissenschaften",
      "value_de": "Kunst-, Musik-, Theater- und Medienwissenschaften",
      "value_en": "Art History, Music, Theatre and Media Studies"
  },
  {
      "_vocabulary": "dfg_fachsystematik",
      "key": "108",
      "parentEntity": "11",
      "primaryValue": "Philosophie",
      "value_de": "Philosophie",
      "value_en": "Philosophy"
  },
  {
      "_vocabulary": "dfg_fachsystematik",
      "key": "2",
      "parentEntity": "owl#Thing",
      "primaryValue": "Lebenswissenschaften",
      "value_de": "Lebenswissenschaften",
      "value_en": "Life Sciences"
  },
  {
      "_vocabulary": "dfg_fachsystematik",
      "key": "21",
      "parentEntity": "2",
      "primaryValue": "Biologie",
      "value_de": "Biologie",
      "value_en": "Biology"
  },
  {
      "_vocabulary": "dfg_fachsystematik",
      "key": "22",
      "parentEntity": "2",
      "primaryValue": "Medizin",
      "value_de": "Medizin",
      "value_en": "Medicine"
  },
  {
      "_vocabulary": "dfg_fachsystematik",
      "key": "326",
      "parentEntity": "31",
      "primaryValue": "Polymerforschung",
      "value_de": "Polymerforschung",
      "value_en": "Polymer Research"
  },
  {
      "_vocabulary": "dfg_fachsystematik",
      "key": "408",
      "parentEntity": "44",
      "primaryValue": "Elektrotechnik und Informationstechnik",
      "value_de": "Elektrotechnik und Informationstechnik",
      "value_en": "Electrical Engineering and Information Technology"
  },
  {
      "_vocabulary": "dfg_fachsystematik",
      "key": "44",
      "parentEntity": "4",
      "primaryValue": "Informatik, System- und Elektrotechnik",
      "value_de": "Informatik, System- und Elektrotechnik",
      "value_en": "Computer Science, Systems and  Electrical Engineering"
  },
  {
      "_vocabulary": "dfg_fachsystematik",
      "key": "102",
      "parentEntity": "11",
      "primaryValue": "Geschichtswissenschaften",
      "value_de": "Geschichtswissenschaften",
      "value_en": "History"
  },
  {
      "_vocabulary": "dfg_fachsystematik",
      "key": "104",
      "parentEntity": "11",
      "primaryValue": "Sprachwissenschaften",
      "value_de": "Sprachwissenschaften",
      "value_en": "Linguistics"
  },
  {
      "_vocabulary": "dfg_fachsystematik",
      "key": "105",
      "parentEntity": "11",
      "primaryValue": "Literaturwissenschaft; Kulturwissenschaft",
      "value_de": "Literaturwissenschaft; Kulturwissenschaft",
      "value_en": "Literary Studies"
  },
  {
      "_vocabulary": "dfg_fachsystematik",
      "key": "109",
      "parentEntity": "12",
      "primaryValue": "Erziehungswissenschaft und Bildungsforschung",
      "value_de": "Erziehungswissenschaft und Bildungsforschung",
      "value_en": "Educational Research"
  },
  {
      "_vocabulary": "dfg_fachsystematik",
      "key": "111",
      "parentEntity": "12",
      "primaryValue": "Sozialwissenschaften",
      "value_de": "Sozialwissenschaften",
      "value_en": "Social Sciences"
  },
  {
      "_vocabulary": "dfg_fachsystematik",
      "key": "3",
      "parentEntity": "owl#Thing",
      "primaryValue": "Naturwissenschaften",
      "value_de": "Naturwissenschaften",
      "value_en": "Natural Sciences"
  },
  {
      "_vocabulary": "dfg_fachsystematik",
      "key": "402",
      "parentEntity": "41",
      "primaryValue": "Mechanik und Konstruktiver Maschinenbau",
      "value_de": "Mechanik und Konstruktiver Maschinenbau",
      "value_en": "Mechanics and Constructive Mechanical Engineering"
  },
  {
      "_vocabulary": "dfg_fachsystematik",
      "key": "403",
      "parentEntity": "42",
      "primaryValue": "Verfahrenstechnik, Technische Chemie",
      "value_de": "Verfahrenstechnik, Technische Chemie",
      "value_en": "Process Engineering, Technical Chemistry"
  },
  {
      "_vocabulary": "dfg_fachsystematik",
      "key": "404",
      "parentEntity": "42",
      "primaryValue": "Strömungsmechanik, Technische Thermodynamik und Thermische Energietechnik",
      "value_de": "Strömungsmechanik, Technische Thermodynamik und Thermische Energietechnik",
      "value_en": "Fluid Mechanics, Technical Thermodynamics and Thermal Energy Engineering"
  },
  {
      "_vocabulary": "dfg_fachsystematik",
      "key": "406",
      "parentEntity": "43",
      "primaryValue": "Materialwissenschaft",
      "value_de": "Materialwissenschaft",
      "value_en": "Materials Science"
  },
  {
      "_vocabulary": "dfg_fachsystematik",
      "key": "101",
      "parentEntity": "11",
      "primaryValue": "Alte Kulturen",
      "value_de": "Alte Kulturen",
      "value_en": "Ancient Cultures"
  },
  {
      "_vocabulary": "dfg_fachsystematik",
      "key": "106",
      "parentEntity": "11",
      "primaryValue": "Sozial- und Kulturanthropologie, Außereuropäische Kulturen, Judaistik und Religionswissenschaft",
      "value_de": "Sozial- und Kulturanthropologie, Außereuropäische Kulturen, Judaistik und Religionswissenschaft",
      "value_en": "Social and Cultural Anthropology, Non-European Cultures, Jewish Studies and Religious Studies"
  },
  {
      "_vocabulary": "dfg_fachsystematik",
      "key": "110",
      "parentEntity": "12",
      "primaryValue": "Psychologie",
      "value_de": "Psychologie",
      "value_en": "Psychology"
  },
  {
      "_vocabulary": "dfg_fachsystematik",
      "key": "112",
      "parentEntity": "12",
      "primaryValue": "Wirtschaftswissenschaften",
      "value_de": "Wirtschaftswissenschaften",
      "value_en": "Economics"
  },
  {
      "_vocabulary": "dfg_fachsystematik",
      "key": "113",
      "parentEntity": "12",
      "primaryValue": "Rechtswissenschaften",
      "value_de": "Rechtswissenschaften",
      "value_en": "Jurisprudence"
  },
  {
      "_vocabulary": "dfg_fachsystematik",
      "key": "12",
      "parentEntity": "1",
      "primaryValue": "Sozial- und Verhaltens- wissenschaften",
      "value_de": "Sozial- und Verhaltens- wissenschaften",
      "value_en": "Social and Behavioural Sciences"
  },
  {
      "_vocabulary": "dfg_fachsystematik",
      "key": "32",
      "parentEntity": "3",
      "primaryValue": "Physik",
      "value_de": "Physik",
      "value_en": "Physics"
  },
  {
      "_vocabulary": "dfg_fachsystematik",
      "key": "4",
      "parentEntity": "owl#Thing",
      "primaryValue": "Ingenieurwissenschaften",
      "value_de": "Ingenieurwissenschaften",
      "value_en": "Engineering Sciences"
  },
  {
      "_vocabulary": "dfg_fachsystematik",
      "key": "203",
      "parentEntity": "21",
      "primaryValue": "Zoologie",
      "value_de": "Zoologie",
      "value_en": "Zoology"
  },
  {
      "_vocabulary": "dfg_fachsystematik",
      "key": "204",
      "parentEntity": "22",
      "primaryValue": "Mikrobiologie, Virologie und Immunologie",
      "value_de": "Mikrobiologie, Virologie und Immunologie",
      "value_en": "Microbiology, Virology and Immunology"
  },
  {
      "_vocabulary": "dfg_fachsystematik",
      "key": "34",
      "parentEntity": "3",
      "primaryValue": "Geowissen-schaften",
      "value_de": "Geowissen-schaften",
      "value_en": "Geosciences"
  },
  {
      "_vocabulary": "dfg_fachsystematik",
      "key": "401",
      "parentEntity": "41",
      "primaryValue": "Produktionstechnik",
      "value_de": "Produktionstechnik",
      "value_en": "Production Technology"
  },
  {
      "_vocabulary": "dfg_fachsystematik",
      "key": "405",
      "parentEntity": "43",
      "primaryValue": "Werkstofftechnik",
      "value_de": "Werkstofftechnik",
      "value_en": "Materials Engineering"
  },
  {
      "_vocabulary": "dfg_fachsystematik",
      "key": "407",
      "parentEntity": "44",
      "primaryValue": "Systemtechnik",
      "value_de": "Systemtechnik",
      "value_en": "Systems Engineering"
  },
  {
      "_vocabulary": "dfg_fachsystematik",
      "key": "410",
      "parentEntity": "45",
      "primaryValue": "Bauwesen und Architektur",
      "value_de": "Bauwesen und Architektur",
      "value_en": "Construction Engineering and Architecture"
  },
  {
      "_vocabulary": "dfg_fachsystematik",
      "key": "201",
      "parentEntity": "21",
      "primaryValue": "Grundlagen der Biologie und Medizin",
      "value_de": "Grundlagen der Biologie und Medizin",
      "value_en": "Basic Research in Biology and Medicine"
  },
  {
      "_vocabulary": "dfg_fachsystematik",
      "key": "202",
      "parentEntity": "21",
      "primaryValue": "Pflanzenwissenschaften",
      "value_de": "Pflanzenwissenschaften",
      "value_en": "Plant Sciences"
  },
  {
      "_vocabulary": "dfg_fachsystematik",
      "key": "31",
      "parentEntity": "3",
      "primaryValue": "Chemie",
      "value_de": "Chemie",
      "value_en": "Chemistry"
  },
  {
      "_vocabulary": "dfg_fachsystematik",
      "key": "11",
      "parentEntity": "1",
      "primaryValue": "Geisteswissenschaften",
      "value_de": "Geisteswissenschaften",
      "value_en": "Humanities"
  },
  {
      "_vocabulary": "dfg_fachsystematik",
      "key": "207",
      "parentEntity": "23",
      "primaryValue": "Agrar-, Forstwissenschaften und Tiermedizin",
      "value_de": "Agrar-, Forstwissenschaften und Tiermedizin",
      "value_en": "Agriculture, Forestry and Veterinary Medicine"
  },
  {
      "_vocabulary": "dfg_fachsystematik",
      "key": "409",
      "parentEntity": "44",
      "primaryValue": "Informatik",
      "value_de": "Informatik",
      "value_en": "Computer Science"
  },
  {
      "_vocabulary": "dfg_fachsystematik",
      "key": "206",
      "parentEntity": "22",
      "primaryValue": "Neurowissenschaften",
      "value_de": "Neurowissenschaften",
      "value_en": "Neurosciences"
  },
  {
      "_vocabulary": "dfg_fachsystematik",
      "key": "205",
      "parentEntity": "22",
      "primaryValue": "Medizin",
      "value_de": "Medizin",
      "value_en": "Medicine"
  }
]