[
  { 
      "_vocabulary": "editions_quellenmedium",
      "key": "audio",
      "value": "Audio"
  }, { 
      "_vocabulary": "editions_quellenmedium",
      "key": "bild",
      "value": "Bild"
  }, { 
      "_vocabulary": "editions_quellenmedium",
      "key": "film",
      "value": "Film"
  }, { 
      "_vocabulary": "editions_quellenmedium",
      "key": "notation",
      "value": "Notation (z. B. Musik oder Tanz)"
  }, { 
      "_vocabulary": "editions_quellenmedium",
      "key": "text",
      "value": "Text"
  }
]