[
  { 
    "_vocabulary": "lexical_resources_entry_type",
    "key": "lexeme",
    "value": "lexeme"
  }, { 
    "_vocabulary": "lexical_resources_entry_type",
    "key": "concept",
    "value": "concept"
  }, { 
    "_vocabulary": "lexical_resources_entry_type",
    "key": "lexUnit",
    "value": "lexUnit"
  }, { 
    "_vocabulary": "lexical_resources_entry_type",
    "key": "synset",
    "value": "synset"
  }
]