[
  { 
    "_vocabulary": "lexical_resources_modality",
    "key": "written",
    "value": "Written"
  }, { 
    "_vocabulary": "lexical_resources_modality",
    "key": "image",
    "value": "Image"
  }, { 
    "_vocabulary": "lexical_resources_modality",
    "key": "gesture",
    "value": "Gesture"
  }
]